Log : 21-10-2020 18:54:23 , Details: '/Home/Index is about to execute' 
Log : 21-10-2020 18:54:30 , Details: '/Home/Index executed !!!' 
Log : 21-10-2020 18:54:30 , Details: 'UI Proceesing is Bout to begin....' 
Log : 21-10-2020 18:54:36 , Details: 'UI Processing is Done!!!!!' 
Log : 21-10-2020 18:54:49 , Details: '/Home/Delete is about to execute' 
Log : 21-10-2020 18:54:49 , Details: '/Home/Delete executed !!!' 
Log : 21-10-2020 18:54:49 , Details: 'UI Proceesing is Bout to begin....' 
Log : 21-10-2020 18:54:49 , Details: 'UI Processing is Done!!!!!' 
Log : 21-10-2020 18:54:49 , Details: '/Home/Index is about to execute' 
Log : 21-10-2020 18:54:49 , Details: '/Home/Index executed !!!' 
Log : 21-10-2020 18:54:49 , Details: 'UI Proceesing is Bout to begin....' 
Log : 21-10-2020 18:54:49 , Details: 'UI Processing is Done!!!!!' 
Log : 21-10-2020 19:24:01 , Details: '/Home/Index is about to execute' 
Log : 21-10-2020 19:24:01 , Details: '/Home/Index executed !!!' 
Log : 21-10-2020 19:24:01 , Details: 'UI Proceesing is Bout to begin....' 
Log : 21-10-2020 19:24:06 , Details: 'UI Processing is Done!!!!!' 
Log : 21-10-2020 19:24:12 , Details: '/Home/Edit is about to execute' 
Log : 21-10-2020 19:24:12 , Details: '/Home/Edit executed !!!' 
Log : 21-10-2020 19:24:12 , Details: 'UI Proceesing is Bout to begin....' 
Log : 21-10-2020 19:24:12 , Details: 'UI Processing is Done!!!!!' 
Log : 21-10-2020 19:24:14 , Details: '/Home/Edit is about to execute' 
Log : 21-10-2020 19:24:15 , Details: '/Home/Edit executed !!!' 
Log : 21-10-2020 19:24:15 , Details: 'UI Proceesing is Bout to begin....' 
Log : 21-10-2020 19:24:15 , Details: 'UI Processing is Done!!!!!' 
Log : 21-10-2020 19:24:15 , Details: '/Home/Index is about to execute' 
Log : 21-10-2020 19:24:15 , Details: '/Home/Index executed !!!' 
Log : 21-10-2020 19:24:15 , Details: 'UI Proceesing is Bout to begin....' 
Log : 21-10-2020 19:24:15 , Details: 'UI Processing is Done!!!!!' 
Log : 21-10-2020 19:24:18 , Details: '/Home/Create is about to execute' 
Log : 21-10-2020 19:24:18 , Details: '/Home/Create executed !!!' 
Log : 21-10-2020 19:24:18 , Details: 'UI Proceesing is Bout to begin....' 
Log : 21-10-2020 19:24:19 , Details: 'UI Processing is Done!!!!!' 
Log : 21-10-2020 19:24:28 , Details: '/Home/Create is about to execute' 
Log : 21-10-2020 19:24:29 , Details: '/Home/Create executed !!!' 
Log : 21-10-2020 19:24:41 , Details: '/Home/Contact is about to execute' 
Log : 21-10-2020 19:24:41 , Details: '/Home/Contact executed !!!' 
Log : 21-10-2020 19:24:41 , Details: 'UI Proceesing is Bout to begin....' 
Log : 21-10-2020 19:24:41 , Details: 'UI Processing is Done!!!!!' 
Log : 21-10-2020 19:24:57 , Details: '/Home/Contact is about to execute' 
Log : 21-10-2020 19:24:58 , Details: '/Home/Contact executed !!!' 
Log : 21-10-2020 19:24:58 , Details: 'UI Proceesing is Bout to begin....' 
Log : 21-10-2020 19:24:58 , Details: 'UI Processing is Done!!!!!' 
Log : 22-10-2020 09:50:12 , Details: '/Home/Index is about to execute' 
Log : 22-10-2020 09:50:12 , Details: '/Home/Index executed !!!' 
Log : 22-10-2020 09:50:12 , Details: 'UI Proceesing is Bout to begin....' 
Log : 22-10-2020 09:50:17 , Details: 'UI Processing is Done!!!!!' 
Log : 22-10-2020 09:50:40 , Details: '/Sample/Index is about to execute' 
Log : 22-10-2020 09:50:40 , Details: '/Sample/Index executed !!!' 
Log : 22-10-2020 09:50:40 , Details: 'UI Proceesing is Bout to begin....' 
Log : 22-10-2020 09:50:43 , Details: 'UI Processing is Done!!!!!' 
Log : 22-10-2020 09:52:30 , Details: '/Sample/Index is about to execute' 
Log : 22-10-2020 09:52:35 , Details: '/Sample/Index executed !!!' 
Log : 22-10-2020 09:52:35 , Details: 'UI Proceesing is Bout to begin....' 
Log : 22-10-2020 09:52:39 , Details: 'UI Processing is Done!!!!!' 
Log : 22-10-2020 09:53:33 , Details: '/Sample/Index is about to execute' 
Log : 22-10-2020 09:53:37 , Details: '/Sample/Index executed !!!' 
Log : 22-10-2020 09:53:37 , Details: 'UI Proceesing is Bout to begin....' 
Log : 22-10-2020 09:53:41 , Details: 'UI Processing is Done!!!!!' 
Log : 22-10-2020 09:53:43 , Details: '/Sample/Delete is about to execute' 
Log : 22-10-2020 09:53:44 , Details: '/Sample/Delete executed !!!' 
Log : 22-10-2020 09:53:44 , Details: 'UI Proceesing is Bout to begin....' 
Log : 22-10-2020 09:53:44 , Details: 'UI Processing is Done!!!!!' 
Log : 22-10-2020 09:53:44 , Details: '/Sample/Index is about to execute' 
Log : 22-10-2020 09:53:44 , Details: '/Sample/Index executed !!!' 
Log : 22-10-2020 09:53:44 , Details: 'UI Proceesing is Bout to begin....' 
Log : 22-10-2020 09:53:44 , Details: 'UI Processing is Done!!!!!' 
Log : 22-10-2020 09:53:47 , Details: '/Sample/Edit is about to execute' 
Log : 22-10-2020 09:53:47 , Details: '/Sample/Edit executed !!!' 
Log : 22-10-2020 09:53:47 , Details: 'UI Proceesing is Bout to begin....' 
Log : 22-10-2020 09:53:47 , Details: 'UI Processing is Done!!!!!' 
Log : 22-10-2020 09:53:57 , Details: '/Sample/Edit is about to execute' 
Log : 22-10-2020 09:53:57 , Details: '/Sample/Edit executed !!!' 
Log : 22-10-2020 09:53:57 , Details: 'UI Proceesing is Bout to begin....' 
Log : 22-10-2020 09:53:57 , Details: 'UI Processing is Done!!!!!' 
Log : 22-10-2020 09:53:57 , Details: '/Sample/Index is about to execute' 
Log : 22-10-2020 09:53:57 , Details: '/Sample/Index executed !!!' 
Log : 22-10-2020 09:53:57 , Details: 'UI Proceesing is Bout to begin....' 
Log : 22-10-2020 09:53:57 , Details: 'UI Processing is Done!!!!!' 
Log : 22-10-2020 09:54:02 , Details: '/Sample/Create is about to execute' 
Log : 22-10-2020 09:54:02 , Details: '/Sample/Create executed !!!' 
Log : 22-10-2020 09:54:02 , Details: 'UI Proceesing is Bout to begin....' 
Log : 22-10-2020 09:54:02 , Details: 'UI Processing is Done!!!!!' 
Log : 22-10-2020 09:54:13 , Details: '/Sample/Create is about to execute' 
Log : 22-10-2020 09:54:13 , Details: '/Sample/Create executed !!!' 
Log : 22-10-2020 09:54:13 , Details: 'UI Proceesing is Bout to begin....' 
Log : 22-10-2020 09:54:13 , Details: 'UI Processing is Done!!!!!' 
Log : 22-10-2020 09:54:13 , Details: '/Sample/Index is about to execute' 
Log : 22-10-2020 09:54:13 , Details: '/Sample/Index executed !!!' 
Log : 22-10-2020 09:54:13 , Details: 'UI Proceesing is Bout to begin....' 
Log : 22-10-2020 09:54:13 , Details: 'UI Processing is Done!!!!!' 
Log : 22-10-2020 10:00:07 , Details: '/Sample/Edit is about to execute' 
Log : 22-10-2020 10:00:07 , Details: '/Sample/Edit executed !!!' 
Log : 22-10-2020 10:00:07 , Details: 'UI Proceesing is Bout to begin....' 
Log : 22-10-2020 10:00:07 , Details: 'UI Processing is Done!!!!!' 
Log : 22-10-2020 10:02:41 , Details: '/Sample/Index is about to execute' 
Log : 22-10-2020 10:02:41 , Details: '/Sample/Index executed !!!' 
Log : 22-10-2020 10:02:41 , Details: 'UI Proceesing is Bout to begin....' 
Log : 22-10-2020 10:02:42 , Details: 'UI Processing is Done!!!!!' 
Log : 22-10-2020 10:32:01 , Details: '/Home/Index is about to execute' 
Log : 22-10-2020 10:32:01 , Details: '/Home/Index executed !!!' 
Log : 22-10-2020 10:32:01 , Details: 'UI Proceesing is Bout to begin....' 
Log : 22-10-2020 10:32:06 , Details: 'UI Processing is Done!!!!!' 
Log : 22-10-2020 10:32:09 , Details: '/Home/Create is about to execute' 
Log : 22-10-2020 10:32:09 , Details: '/Home/Create executed !!!' 
Log : 22-10-2020 10:32:09 , Details: 'UI Proceesing is Bout to begin....' 
Log : 22-10-2020 10:32:09 , Details: 'UI Processing is Done!!!!!' 
Log : 22-10-2020 10:32:19 , Details: '/Home/Create is about to execute' 
Log : 22-10-2020 10:32:19 , Details: '/Home/Create executed !!!' 
Log : 22-10-2020 10:32:31 , Details: '/Home/Index is about to execute' 
Log : 22-10-2020 10:32:31 , Details: '/Home/Index executed !!!' 
Log : 22-10-2020 10:32:31 , Details: 'UI Proceesing is Bout to begin....' 
Log : 22-10-2020 10:32:31 , Details: 'UI Processing is Done!!!!!' 
Log : 22-10-2020 10:32:33 , Details: '/Home/Create is about to execute' 
Log : 22-10-2020 10:32:33 , Details: '/Home/Create executed !!!' 
Log : 22-10-2020 10:32:33 , Details: 'UI Proceesing is Bout to begin....' 
Log : 22-10-2020 10:32:33 , Details: 'UI Processing is Done!!!!!' 
Log : 22-10-2020 10:32:44 , Details: '/Home/Create is about to execute' 
Log : 22-10-2020 10:32:44 , Details: '/Home/Create executed !!!' 
Log : 22-10-2020 10:51:29 , Details: '/Home/Create is about to execute' 
Log : 22-10-2020 10:51:37 , Details: '/Home/Create executed !!!' 
Log : 22-10-2020 10:51:37 , Details: 'UI Proceesing is Bout to begin....' 
Log : 22-10-2020 10:51:37 , Details: 'UI Processing is Done!!!!!' 
Log : 22-10-2020 10:51:38 , Details: '/Home/Create is about to execute' 
Log : 22-10-2020 10:51:38 , Details: '/Home/Create executed !!!' 
Log : 22-10-2020 10:51:44 , Details: '/Home/Create is about to execute' 
Log : 22-10-2020 10:51:44 , Details: '/Home/Create executed !!!' 
Log : 22-10-2020 10:52:11 , Details: '/Home/Create is about to execute' 
Log : 22-10-2020 10:52:11 , Details: '/Home/Create executed !!!' 
Log : 22-10-2020 10:52:26 , Details: '/Home/Create is about to execute' 
Log : 22-10-2020 10:52:26 , Details: '/Home/Create executed !!!' 
Log : 22-10-2020 10:52:37 , Details: '/Home/Index is about to execute' 
Log : 22-10-2020 10:52:39 , Details: '/Home/Index executed !!!' 
Log : 22-10-2020 10:52:39 , Details: 'UI Proceesing is Bout to begin....' 
Log : 22-10-2020 10:52:46 , Details: 'UI Processing is Done!!!!!' 
Log : 22-10-2020 10:52:50 , Details: '/Home/Edit is about to execute' 
Log : 22-10-2020 10:52:50 , Details: '/Home/Edit executed !!!' 
Log : 22-10-2020 10:52:50 , Details: 'UI Proceesing is Bout to begin....' 
Log : 22-10-2020 10:52:50 , Details: 'UI Processing is Done!!!!!' 
Log : 22-10-2020 10:53:01 , Details: '/Home/Edit is about to execute' 
Log : 22-10-2020 10:53:01 , Details: '/Home/Edit executed !!!' 
Log : 22-10-2020 10:53:01 , Details: 'UI Proceesing is Bout to begin....' 
Log : 22-10-2020 10:53:01 , Details: 'UI Processing is Done!!!!!' 
Log : 22-10-2020 10:53:01 , Details: '/Home/Index is about to execute' 
Log : 22-10-2020 10:53:01 , Details: '/Home/Index executed !!!' 
Log : 22-10-2020 10:53:01 , Details: 'UI Proceesing is Bout to begin....' 
Log : 22-10-2020 10:53:01 , Details: 'UI Processing is Done!!!!!' 
Log : 22-10-2020 10:53:06 , Details: '/Home/Create is about to execute' 
Log : 22-10-2020 10:53:06 , Details: '/Home/Create executed !!!' 
Log : 22-10-2020 10:53:06 , Details: 'UI Proceesing is Bout to begin....' 
Log : 22-10-2020 10:53:06 , Details: 'UI Processing is Done!!!!!' 
Log : 22-10-2020 10:53:33 , Details: '/Home/Create is about to execute' 
Log : 22-10-2020 10:53:33 , Details: '/Home/Create executed !!!' 
Log : 22-10-2020 10:53:33 , Details: 'UI Proceesing is Bout to begin....' 
Log : 22-10-2020 10:53:33 , Details: 'UI Processing is Done!!!!!' 
Log : 22-10-2020 10:53:33 , Details: '/Home/Index is about to execute' 
Log : 22-10-2020 10:53:33 , Details: '/Home/Index executed !!!' 
Log : 22-10-2020 10:53:33 , Details: 'UI Proceesing is Bout to begin....' 
Log : 22-10-2020 10:53:33 , Details: 'UI Processing is Done!!!!!' 
Log : 22-10-2020 10:53:52 , Details: '/Sample/Index is about to execute' 
Log : 22-10-2020 10:53:52 , Details: '/Sample/Index executed !!!' 
Log : 22-10-2020 10:53:52 , Details: 'UI Proceesing is Bout to begin....' 
Log : 22-10-2020 10:53:55 , Details: 'UI Processing is Done!!!!!' 
Log : 22-10-2020 10:54:01 , Details: '/Sample/Delete is about to execute' 
Log : 22-10-2020 10:54:01 , Details: '/Sample/Delete executed !!!' 
Log : 22-10-2020 10:54:01 , Details: 'UI Proceesing is Bout to begin....' 
Log : 22-10-2020 10:54:01 , Details: 'UI Processing is Done!!!!!' 
Log : 22-10-2020 10:54:01 , Details: '/Sample/Index is about to execute' 
Log : 22-10-2020 10:54:01 , Details: '/Sample/Index executed !!!' 
Log : 22-10-2020 10:54:02 , Details: 'UI Proceesing is Bout to begin....' 
Log : 22-10-2020 10:54:02 , Details: 'UI Processing is Done!!!!!' 
Log : 22-10-2020 10:54:02 , Details: '/Sample/Delete is about to execute' 
Log : 22-10-2020 10:54:02 , Details: '/Sample/Delete executed !!!' 
Log : 22-10-2020 10:54:03 , Details: 'UI Proceesing is Bout to begin....' 
Log : 22-10-2020 10:54:03 , Details: 'UI Processing is Done!!!!!' 
Log : 22-10-2020 10:54:03 , Details: '/Sample/Index is about to execute' 
Log : 22-10-2020 10:54:03 , Details: '/Sample/Index executed !!!' 
Log : 22-10-2020 10:54:03 , Details: 'UI Proceesing is Bout to begin....' 
Log : 22-10-2020 10:54:03 , Details: 'UI Processing is Done!!!!!' 
Log : 22-10-2020 10:54:05 , Details: '/Sample/Create is about to execute' 
Log : 22-10-2020 10:54:05 , Details: '/Sample/Create executed !!!' 
Log : 22-10-2020 10:54:05 , Details: 'UI Proceesing is Bout to begin....' 
Log : 22-10-2020 10:54:05 , Details: 'UI Processing is Done!!!!!' 
Log : 22-10-2020 10:54:15 , Details: '/Sample/Create is about to execute' 
Log : 22-10-2020 10:54:15 , Details: '/Sample/Create executed !!!' 
Log : 22-10-2020 10:54:15 , Details: 'UI Proceesing is Bout to begin....' 
Log : 22-10-2020 10:54:15 , Details: 'UI Processing is Done!!!!!' 
Log : 22-10-2020 10:54:15 , Details: '/Sample/Index is about to execute' 
Log : 22-10-2020 10:54:15 , Details: '/Sample/Index executed !!!' 
Log : 22-10-2020 10:54:15 , Details: 'UI Proceesing is Bout to begin....' 
Log : 22-10-2020 10:54:15 , Details: 'UI Processing is Done!!!!!' 
Log : 22-10-2020 10:54:21 , Details: '/Sample/Create is about to execute' 
Log : 22-10-2020 10:54:21 , Details: '/Sample/Create executed !!!' 
Log : 22-10-2020 10:54:21 , Details: 'UI Proceesing is Bout to begin....' 
Log : 22-10-2020 10:54:21 , Details: 'UI Processing is Done!!!!!' 
Log : 22-10-2020 10:54:38 , Details: '/Sample/Create is about to execute' 
Log : 22-10-2020 10:54:38 , Details: '/Sample/Create executed !!!' 
Log : 22-10-2020 10:54:38 , Details: 'UI Proceesing is Bout to begin....' 
Log : 22-10-2020 10:54:38 , Details: 'UI Processing is Done!!!!!' 
Log : 22-10-2020 10:54:38 , Details: '/Sample/Index is about to execute' 
Log : 22-10-2020 10:54:38 , Details: '/Sample/Index executed !!!' 
Log : 22-10-2020 10:54:38 , Details: 'UI Proceesing is Bout to begin....' 
Log : 22-10-2020 10:54:38 , Details: 'UI Processing is Done!!!!!' 
Log : 22-10-2020 11:02:17 , Details: '/Sample/Create is about to execute' 
Log : 22-10-2020 11:02:17 , Details: '/Sample/Create executed !!!' 
Log : 22-10-2020 11:02:17 , Details: 'UI Proceesing is Bout to begin....' 
Log : 22-10-2020 11:02:22 , Details: 'UI Processing is Done!!!!!' 
Log : 22-10-2020 11:02:55 , Details: '/Sample/Create is about to execute' 
Log : 22-10-2020 11:02:56 , Details: '/Sample/Create executed !!!' 
